{
  "logs_path": "logs",
  "api": {
    "production": "http://esgi-pa-api-261421812.eu-west-3.elb.amazonaws.com/",
    "endpoints": {
      "status_update": "task/{}/status/{}",
      "file": "file/{}",
      "finish_uncompress": "file/finishUncompressTask/{}"
    }
  }
}